State-Space models in mvgam
…
irfs <- irf(varcor_mod, h = 12)

A summary of the IRFs can be computed using the
summary() function:

summary(irfs)
#> # A tibble: 300 × 5
#>    shock                horizon irf_median irf_Qlower irf_Qupper
#>    <chr>                  <int>      <dbl>      <dbl>      <dbl>
#>  1 Process1 -> Process1       1     0.349      0.271       0.445
#>  2 Process1 -> Process1       2     0.296      0.231       0.369
#>  3 Process1 -> Process1       3     0.250      0.193       0.320
#>  4 Process1 -> Process1       4     0.213      0.158       0.281
#>  5 Process1 -> Process1       5     0.182      0.124       0.250
#>  6 Process1 -> Process1       6     0.155      0.0976      0.224
#>  7 Process1 -> Process1       7     0.133      0.0740      0.203
#>  8 Process1 -> Process1       8     0.113      0.0562      0.183
#>  9 Process1 -> Process1       9     0.0970     0.0418      0.167
#> 10 Process1 -> Process1      10     0.0829     0.0314      0.153
#> # ℹ 290 more rows
…
