State-Space models in mvgam
…
irfs <- irf(varcor_mod, h = 12)

A summary of the IRFs can be computed using the
summary() function:

summary(irfs)
#> # A tibble: 300 × 5
#>    shock                  horizon irfQ50 irfQ2.5 irfQ97.5
#>    <chr>                    <int>  <dbl>   <dbl>    <dbl>
#>  1 Process_1 -> Process_1       1 0.349   0.269     0.442
#>  2 Process_1 -> Process_1       2 0.296   0.229     0.368
#>  3 Process_1 -> Process_1       3 0.251   0.191     0.321
#>  4 Process_1 -> Process_1       4 0.213   0.155     0.285
#>  5 Process_1 -> Process_1       5 0.182   0.123     0.253
#>  6 Process_1 -> Process_1       6 0.156   0.0956    0.226
#>  7 Process_1 -> Process_1       7 0.133   0.0732    0.204
#>  8 Process_1 -> Process_1       8 0.114   0.0549    0.185
#>  9 Process_1 -> Process_1       9 0.0981  0.0400    0.170
#> 10 Process_1 -> Process_1      10 0.0840  0.0300    0.156
#> # ℹ 290 more rows
…
