Calculate latent VAR forecast error variance decompositions — fevd.mvgam • mvgam
…
# View a summary of the error variance decompositions
summary(fevds)
#> # A tibble: 192 × 5
#>    shock                  horizon fevd_median fevd_Qlower fevd_Qupper
#>    <chr>                    <int>       <dbl>       <dbl>       <dbl>
#>  1 Process_1 -> Process_1       1       1           1           1    
#>  2 Process_1 -> Process_1       2       0.861       0.500       0.986
#>  3 Process_1 -> Process_1       3       0.763       0.376       0.969
#>  4 Process_1 -> Process_1       4       0.708       0.313       0.957
#>  5 Process_1 -> Process_1       5       0.686       0.279       0.950
#>  6 Process_1 -> Process_1       6       0.677       0.271       0.946
#>  7 Process_1 -> Process_1       7       0.672       0.271       0.944
#>  8 Process_1 -> Process_1       8       0.669       0.273       0.942
#>  9 Process_1 -> Process_1       9       0.668       0.269       0.942
#> 10 Process_1 -> Process_1      10       0.668       0.268       0.941
#> # ℹ 182 more rows
…
