Calculate latent VAR impulse response functions — irf.mvgam • mvgam
…
# Calculate posterior median, upper and lower 95th quantiles
# of the impulse responses
summary(irfs)
#> # A tibble: 192 × 5
#>    shock                horizon irfQ50 irfQ2.5 irfQ97.5
#>    <chr>                  <int>  <dbl>   <dbl>    <dbl>
#>  1 Process1 -> Process1       1 0.144  0.0916     0.211
#>  2 Process1 -> Process1       2 0.131  0.0871     0.192
#>  3 Process1 -> Process1       3 0.117  0.0784     0.172
#>  4 Process1 -> Process1       4 0.105  0.0662     0.157
#>  5 Process1 -> Process1       5 0.0926 0.0536     0.145
#>  6 Process1 -> Process1       6 0.0819 0.0416     0.137
#>  7 Process1 -> Process1       7 0.0716 0.0292     0.128
#>  8 Process1 -> Process1       8 0.0636 0.0190     0.120
#>  9 Process1 -> Process1       9 0.0554 0.0108     0.114
#> 10 Process1 -> Process1      10 0.0483 0.00346    0.108
#> # ℹ 182 more rows
…
