Fit a Bayesian dynamic GAM to a univariate or multivariate set of time series — mvgam • mvgam
…
resids <- residuals(mod1)
str(resids)
#>  num [1:180, 1:4] -0.1514 NaN -0.0868 0.2815 -0.8162 ...
#>  - attr(*, "dimnames")=List of 2
#>   ..$ : NULL
#>   ..$ : chr [1:4] "Estimate" "Est.Error" "Q2.5" "Q97.5"

# Fitted values and residuals can also be added to training data
augment(mod1)
#> # A tibble: 180 × 14
#>        y season  year series    time .observed .fitted .fit.variability
#>    <int>  <int> <int> <fct>    <int>     <int>   <dbl>            <dbl>
#>  1     4      1     1 series_1     1         4    4.67             1.60
#>  2    NA      1     1 series_2     1        NA    6.79             3.78
#>  3     4      1     1 series_3     1         4    4.50             1.59
#>  4     5      2     1 series_1     2         5    4.72             1.65
#>  5     2      2     1 series_2     2         2    3.78             1.44
#>  6    NA      2     1 series_3     2        NA    5.20             2.92
#>  7     7      3     1 series_1     3         7    8.49             2.40
#>  8    12      3     1 series_2     3        12   11.5              2.90
#>  9     4      3     1 series_3     3         4    5.31             1.87
#> 10    39      4     1 series_1     4        39   35.8              5.82
#> # ℹ 170 more rows
#> # ℹ 6 more variables: .fit.cred.low <dbl>, .fit.cred.high <dbl>, .resid <dbl>,
#> #   .resid.variability <dbl>, .resid.cred.low <dbl>, .resid.cred.high <dbl>
…
