Posterior draws of residuals from mvgam models — residuals.mvgam • mvgam
…
# Extract posterior residuals
resids <- residuals(mod)
str(resids)
#>  num [1:75, 1:4] 0.7409 0.5358 0.5017 0.0956 0.5376 ...
#>  - attr(*, "dimnames")=List of 2
#>   ..$ : NULL
#>   ..$ : chr [1:4] "Estimate" "Est.Error" "Q2.5" "Q97.5"

# Or add them directly to the observed data, along with fitted values
augment(mod, robust = FALSE, probs = c(0.25, 0.75))
#> # A tibble: 75 × 14
#>        y season  year series    time .observed .fitted .fit.variability
#>    <int>  <int> <int> <fct>    <int>     <int>   <dbl>            <dbl>
#>  1     2      1     1 series_1     1         2   1.26             0.426
#>  2     2      2     1 series_1     2         2   1.50             0.483
#>  3     2      3     1 series_1     3         2   1.53             0.515
#>  4     1      4     1 series_1     4         1   1.09             0.404
#>  5     1      5     1 series_1     5         1   0.662            0.280
#>  6     0      6     1 series_1     6         0   0.360            0.192
#>  7     0      7     1 series_1     7         0   0.240            0.127
#>  8     0      8     1 series_1     8         0   0.243            0.128
#>  9     1      9     1 series_1     9         1   0.410            0.183
#> 10     0     10     1 series_1    10         0   0.676            0.282
#> # ℹ 65 more rows
#> # ℹ 6 more variables: .fit.cred.low <dbl>, .fit.cred.high <dbl>, .resid <dbl>,
#> #   .resid.variability <dbl>, .resid.cred.low <dbl>, .resid.cred.high <dbl>
…
