State-Space models in mvgam
…
irfs <- irf(varcor_mod, h = 12)

A summary of the IRFs can be computed using the
summary() function:

summary(irfs)
#> # A tibble: 300 × 5
#>    shock                  horizon irfQ50 irfQ2.5 irfQ97.5
#>    <chr>                    <int>  <dbl>   <dbl>    <dbl>
#>  1 Process_1 -> Process_1       1 0.350   0.264     0.441
#>  2 Process_1 -> Process_1       2 0.297   0.227     0.374
#>  3 Process_1 -> Process_1       3 0.251   0.190     0.323
#>  4 Process_1 -> Process_1       4 0.214   0.155     0.283
#>  5 Process_1 -> Process_1       5 0.182   0.125     0.253
#>  6 Process_1 -> Process_1       6 0.155   0.0966    0.227
#>  7 Process_1 -> Process_1       7 0.132   0.0744    0.205
#>  8 Process_1 -> Process_1       8 0.113   0.0563    0.185
#>  9 Process_1 -> Process_1       9 0.0967  0.0419    0.167
#> 10 Process_1 -> Process_1      10 0.0833  0.0307    0.152
#> # ℹ 290 more rows
…
