State-Space models in mvgam • mvgam
…
irfs <- irf(varcor_mod, h = 12)

A summary of the IRFs can be computed using the
summary() function:

summary(irfs)
#> # A tibble: 300 × 5
#>    shock                horizon irf_median irf_Qlower irf_Qupper
#>    <chr>                  <int>      <dbl>      <dbl>      <dbl>
#>  1 Process1 -> Process1       1     0.353      0.270       0.446
#>  2 Process1 -> Process1       2     0.298      0.236       0.371
#>  3 Process1 -> Process1       3     0.252      0.196       0.318
#>  4 Process1 -> Process1       4     0.214      0.159       0.280
#>  5 Process1 -> Process1       5     0.181      0.126       0.250
#>  6 Process1 -> Process1       6     0.153      0.0971      0.227
#>  7 Process1 -> Process1       7     0.130      0.0734      0.204
#>  8 Process1 -> Process1       8     0.111      0.0541      0.184
#>  9 Process1 -> Process1       9     0.0951     0.0396      0.169
#> 10 Process1 -> Process1      10     0.0808     0.0288      0.155
#> # ℹ 290 more rows
…
